intro_to_rmarkdown
…
Loading data

These are the datasets I used

my_data <- read_csv("https://raw.githubusercontent.com/steffilazerte/NRI_7350/main/data/chorus.csv")
my_data

# A tibble: 51 × 3
   urbanization songs calls
          <dbl> <dbl> <dbl>
 1        0.794     0   136
 2        0.890    60    12
 3       -1.85     55    66
 4       -1.85     22   115
 5        0.835    95     3
 6       -1.85      0    70
 7       -1.85     25    44
 8        3.05      0   122
 9        2.64     80     1
10       -1.54      0    45
# … with 41 more rows
…
